<svg xmlns="http://www.w3.org/2000/svg" xmlns:xlink="http://www.w3.org/1999/xlink" width="900px" height="400px">
    <path id="targetPath" fill="rgb( 115, 115, 115 )" d="M 0 0 H 900 V 375 H -900 L 0 0" />
    <path id="linesPath" stroke="red" stroke-width="1" d="" pointer-events="none" />
</svg>
