<svg xmlns="http://www.w3.org/2000/svg" xmlns:xlink="http://www.w3.org/1999/xlink" width="883px" height="730px">"
<path id="targetPath" fill="rgb( 115, 115, 115 )"
	d="M637.577,730.000 C571.280,730.000 504.964,730.000 438.668,730.000 C438.668,683.505 438.668,636.995 438.668,590.500 C438.668,580.168 438.668,569.832 438.668,559.500 C438.667,553.218 438.713,547.671 434.291,546.000 C431.140,543.116 423.073,544.000 417.270,544.000 C403.006,544.000 388.737,544.000 374.473,544.000 C317.578,544.000 260.666,544.000 203.772,544.000 C203.829,534.923 206.199,525.820 208.149,518.000 C209.846,511.193 209.583,503.799 211.067,497.500 C211.391,493.500 211.715,489.500 212.039,485.500 C216.299,466.851 215.639,445.616 219.820,426.500 C219.820,422.500 219.820,418.500 219.820,414.500 C223.121,398.976 218.875,376.773 213.012,368.500 C206.571,359.412 192.582,357.323 181.401,353.000 C158.306,344.071 135.355,335.544 115.746,323.000 C75.216,297.073 44.265,261.132 27.234,211.000 C21.889,195.265 21.509,177.590 17.508,160.000 C15.978,153.274 17.103,147.530 15.563,141.000 C11.419,123.438 11.449,103.597 5.836,87.500 C3.814,81.701 -1.973,72.402 1.945,64.000 C6.827,53.533 21.759,51.186 34.529,56.000 C69.092,69.027 106.044,77.540 140.549,91.000 C176.036,104.843 207.492,120.769 235.383,142.000 C237.117,143.320 238.521,145.666 240.246,147.000 C245.401,150.984 251.469,155.744 255.322,161.000 C259.501,166.701 264.102,173.599 270.399,177.000 C282.519,183.546 291.565,169.877 305.414,175.000 C315.249,178.638 326.135,182.434 336.539,186.000 C345.476,189.062 355.351,189.624 364.260,192.000 C373.308,194.413 383.104,193.917 391.981,196.000 C394.250,196.000 396.520,196.000 398.789,196.000 C405.613,197.536 427.491,199.039 434.291,197.500 C439.619,196.294 446.588,198.074 451.313,197.000 C468.333,196.667 485.357,196.333 502.377,196.000 C506.355,195.081 511.332,196.086 515.994,195.000 C527.865,192.234 540.044,192.467 551.010,189.000 C565.692,184.358 578.394,177.700 590.889,171.000 C605.337,163.253 619.194,156.470 631.741,147.000 C637.071,142.977 642.566,137.772 647.303,133.000 C649.410,130.667 651.518,128.333 653.625,126.000 C664.557,117.620 674.755,107.263 682.805,96.000 C689.251,86.981 695.756,78.423 702.258,69.500 C704.108,66.962 707.217,65.017 709.067,62.500 C711.687,58.934 714.874,54.671 718.307,52.000 C731.596,41.661 745.427,31.426 760.618,23.000 C765.906,20.067 771.121,18.809 776.666,16.000 C788.152,10.182 801.840,6.851 815.573,3.000 C819.301,2.667 823.030,2.333 826.758,2.000 C830.881,1.077 839.781,-0.415 845.239,1.000 C852.582,2.904 858.863,5.869 864.692,9.000 C869.193,11.417 873.977,13.018 876.850,17.000 C881.249,23.095 884.560,36.411 881.713,48.000 C876.197,70.460 872.022,93.213 864.692,113.500 C861.020,123.663 859.251,133.433 854.965,143.000 C845.398,164.359 835.886,185.617 823.354,204.000 C818.598,210.976 813.274,217.646 808.278,224.500 C806.428,227.038 803.320,228.983 801.469,231.500 C796.595,238.127 790.412,244.495 783.961,249.500 C779.678,252.824 776.155,257.710 771.803,261.000 C756.843,272.312 740.872,283.087 723.657,292.000 C709.956,299.094 692.690,303.620 685.723,317.500 C682.988,322.949 682.313,333.537 684.750,340.000 C690.398,354.970 704.640,365.974 716.362,375.000 C719.270,377.240 721.722,380.759 724.629,383.000 C740.023,394.867 753.941,408.156 769.372,420.000 C773.954,423.518 777.922,428.479 782.502,432.000 C789.936,437.715 796.562,444.405 803.901,450.000 C808.981,453.872 815.208,457.837 818.977,463.000 C825.303,471.666 833.989,486.162 829.676,503.500 C822.338,532.998 809.574,553.708 794.661,575.000 C791.725,579.191 787.844,583.578 784.448,587.500 C782.341,589.500 780.233,591.500 778.125,593.500 C772.791,600.751 765.771,606.553 758.672,612.000 C750.632,618.170 742.918,625.845 733.870,631.000 C724.039,636.600 712.470,639.812 700.313,643.000 C696.909,643.333 693.504,643.667 690.100,644.000 C671.888,648.601 653.591,649.224 640.495,659.000 C634.364,663.576 625.965,674.256 629.309,688.000 C631.348,696.382 631.732,705.757 634.172,714.500 C635.468,719.143 637.135,724.676 637.577,730.000 Z" />

    <path id="linesPath" stroke="red" stroke-width="1" d="" pointer-events="none" />
</svg>
